-- Merging decision tree log ---
manifest
ADDED from /root/AndroidStudioProjects/jrk/SSH-Tunnel/src/main/AndroidManifest.xml:2:1-56:12
INJECTED from /root/AndroidStudioProjects/jrk/SSH-Tunnel/src/main/AndroidManifest.xml:2:1-56:12
INJECTED from /root/AndroidStudioProjects/jrk/SSH-Tunnel/src/main/AndroidManifest.xml:2:1-56:12
	package
		ADDED from /root/AndroidStudioProjects/jrk/SSH-Tunnel/src/main/AndroidManifest.xml:3:5-28
		INJECTED from /root/AndroidStudioProjects/jrk/SSH-Tunnel/src/main/AndroidManifest.xml
		INJECTED from /root/AndroidStudioProjects/jrk/SSH-Tunnel/src/main/AndroidManifest.xml
	xmlns:android
		ADDED from /root/AndroidStudioProjects/jrk/SSH-Tunnel/src/main/AndroidManifest.xml:2:11-69
uses-permission#android.permission.INTERNET
ADDED from /root/AndroidStudioProjects/jrk/SSH-Tunnel/src/main/AndroidManifest.xml:6:5-67
	android:name
		ADDED from /root/AndroidStudioProjects/jrk/SSH-Tunnel/src/main/AndroidManifest.xml:6:22-64
uses-permission#android.permission.VIBRATE
ADDED from /root/AndroidStudioProjects/jrk/SSH-Tunnel/src/main/AndroidManifest.xml:7:5-66
	android:name
		ADDED from /root/AndroidStudioProjects/jrk/SSH-Tunnel/src/main/AndroidManifest.xml:7:22-63
uses-permission#android.permission.ACCESS_NETWORK_STATE
ADDED from /root/AndroidStudioProjects/jrk/SSH-Tunnel/src/main/AndroidManifest.xml:8:5-79
	android:name
		ADDED from /root/AndroidStudioProjects/jrk/SSH-Tunnel/src/main/AndroidManifest.xml:8:22-76
uses-permission#android.permission.ACCESS_WIFI_STATE
ADDED from /root/AndroidStudioProjects/jrk/SSH-Tunnel/src/main/AndroidManifest.xml:9:5-76
	android:name
		ADDED from /root/AndroidStudioProjects/jrk/SSH-Tunnel/src/main/AndroidManifest.xml:9:22-73
uses-permission#android.permission.READ_EXTERNAL_STORAGE
ADDED from /root/AndroidStudioProjects/jrk/SSH-Tunnel/src/main/AndroidManifest.xml:10:5-80
	android:name
		ADDED from /root/AndroidStudioProjects/jrk/SSH-Tunnel/src/main/AndroidManifest.xml:10:22-77
application
ADDED from /root/AndroidStudioProjects/jrk/SSH-Tunnel/src/main/AndroidManifest.xml:12:5-55:19
	android:label
		ADDED from /root/AndroidStudioProjects/jrk/SSH-Tunnel/src/main/AndroidManifest.xml:15:9-41
	android:icon
		ADDED from /root/AndroidStudioProjects/jrk/SSH-Tunnel/src/main/AndroidManifest.xml:14:9-38
	android:name
		ADDED from /root/AndroidStudioProjects/jrk/SSH-Tunnel/src/main/AndroidManifest.xml:13:9-41
activity#org.sshtunnel.SSHTunnel
ADDED from /root/AndroidStudioProjects/jrk/SSH-Tunnel/src/main/AndroidManifest.xml:17:9-24:20
	android:label
		ADDED from /root/AndroidStudioProjects/jrk/SSH-Tunnel/src/main/AndroidManifest.xml:19:13-45
	android:name
		ADDED from /root/AndroidStudioProjects/jrk/SSH-Tunnel/src/main/AndroidManifest.xml:18:13-38
activity#org.sshtunnel.AppManager
ADDED from /root/AndroidStudioProjects/jrk/SSH-Tunnel/src/main/AndroidManifest.xml:25:9-27:48
	android:label
		ADDED from /root/AndroidStudioProjects/jrk/SSH-Tunnel/src/main/AndroidManifest.xml:27:13-45
	android:name
		ADDED from /root/AndroidStudioProjects/jrk/SSH-Tunnel/src/main/AndroidManifest.xml:26:13-39
activity#org.sshtunnel.FileChooser
ADDED from /root/AndroidStudioProjects/jrk/SSH-Tunnel/src/main/AndroidManifest.xml:28:9-30:48
	android:label
		ADDED from /root/AndroidStudioProjects/jrk/SSH-Tunnel/src/main/AndroidManifest.xml:30:13-45
	android:name
		ADDED from /root/AndroidStudioProjects/jrk/SSH-Tunnel/src/main/AndroidManifest.xml:29:13-40
activity#org.sshtunnel.FingerPrintDialog
ADDED from /root/AndroidStudioProjects/jrk/SSH-Tunnel/src/main/AndroidManifest.xml:31:9-34:59
	android:label
		ADDED from /root/AndroidStudioProjects/jrk/SSH-Tunnel/src/main/AndroidManifest.xml:33:13-61
	android:theme
		ADDED from /root/AndroidStudioProjects/jrk/SSH-Tunnel/src/main/AndroidManifest.xml:34:13-56
	android:name
		ADDED from /root/AndroidStudioProjects/jrk/SSH-Tunnel/src/main/AndroidManifest.xml:32:13-46
service#org.sshtunnel.SSHTunnelService
ADDED from /root/AndroidStudioProjects/jrk/SSH-Tunnel/src/main/AndroidManifest.xml:36:9-38:38
	android:enabled
		ADDED from /root/AndroidStudioProjects/jrk/SSH-Tunnel/src/main/AndroidManifest.xml:38:13-35
	android:name
		ADDED from /root/AndroidStudioProjects/jrk/SSH-Tunnel/src/main/AndroidManifest.xml:37:13-45
receiver#org.sshtunnel.ConnectivityBroadcastReceiver
ADDED from /root/AndroidStudioProjects/jrk/SSH-Tunnel/src/main/AndroidManifest.xml:40:9-44:20
	android:name
		ADDED from /root/AndroidStudioProjects/jrk/SSH-Tunnel/src/main/AndroidManifest.xml:40:19-64
intent-filter#action:name:android.net.conn.CONNECTIVITY_CHANGE
ADDED from /root/AndroidStudioProjects/jrk/SSH-Tunnel/src/main/AndroidManifest.xml:41:13-43:29
action#android.net.conn.CONNECTIVITY_CHANGE
ADDED from /root/AndroidStudioProjects/jrk/SSH-Tunnel/src/main/AndroidManifest.xml:42:17-79
	android:name
		ADDED from /root/AndroidStudioProjects/jrk/SSH-Tunnel/src/main/AndroidManifest.xml:42:25-76
receiver#org.sshtunnel.SSHTunnelWidgetProvider
ADDED from /root/AndroidStudioProjects/jrk/SSH-Tunnel/src/main/AndroidManifest.xml:45:9-53:20
	android:name
		ADDED from /root/AndroidStudioProjects/jrk/SSH-Tunnel/src/main/AndroidManifest.xml:45:19-58
intent-filter#action:name:android.appwidget.action.APPWIDGET_UPDATE+action:name:org.sshtunnel.SSHTunnelWidgetProvider.PROXY_SWITCH_ACTION
ADDED from /root/AndroidStudioProjects/jrk/SSH-Tunnel/src/main/AndroidManifest.xml:46:13-49:29
action#android.appwidget.action.APPWIDGET_UPDATE
ADDED from /root/AndroidStudioProjects/jrk/SSH-Tunnel/src/main/AndroidManifest.xml:47:17-84
	android:name
		ADDED from /root/AndroidStudioProjects/jrk/SSH-Tunnel/src/main/AndroidManifest.xml:47:25-81
action#org.sshtunnel.SSHTunnelWidgetProvider.PROXY_SWITCH_ACTION
ADDED from /root/AndroidStudioProjects/jrk/SSH-Tunnel/src/main/AndroidManifest.xml:48:17-100
	android:name
		ADDED from /root/AndroidStudioProjects/jrk/SSH-Tunnel/src/main/AndroidManifest.xml:48:25-97
meta-data#android.appwidget.provider
ADDED from /root/AndroidStudioProjects/jrk/SSH-Tunnel/src/main/AndroidManifest.xml:50:13-52:72
	android:resource
		ADDED from /root/AndroidStudioProjects/jrk/SSH-Tunnel/src/main/AndroidManifest.xml:52:17-69
	android:name
		ADDED from /root/AndroidStudioProjects/jrk/SSH-Tunnel/src/main/AndroidManifest.xml:51:17-58
uses-sdk
INJECTED from /root/AndroidStudioProjects/jrk/SSH-Tunnel/src/main/AndroidManifest.xml reason: use-sdk injection requested
INJECTED from /root/AndroidStudioProjects/jrk/SSH-Tunnel/src/main/AndroidManifest.xml
INJECTED from /root/AndroidStudioProjects/jrk/SSH-Tunnel/src/main/AndroidManifest.xml
INJECTED from /root/AndroidStudioProjects/jrk/SSH-Tunnel/src/main/AndroidManifest.xml
INJECTED from /root/AndroidStudioProjects/jrk/SSH-Tunnel/src/main/AndroidManifest.xml
	android:targetSdkVersion
		INJECTED from /root/AndroidStudioProjects/jrk/SSH-Tunnel/src/main/AndroidManifest.xml
		ADDED from /root/AndroidStudioProjects/jrk/SSH-Tunnel/src/main/AndroidManifest.xml
		INJECTED from /root/AndroidStudioProjects/jrk/SSH-Tunnel/src/main/AndroidManifest.xml
	android:minSdkVersion
		INJECTED from /root/AndroidStudioProjects/jrk/SSH-Tunnel/src/main/AndroidManifest.xml
		ADDED from /root/AndroidStudioProjects/jrk/SSH-Tunnel/src/main/AndroidManifest.xml
		INJECTED from /root/AndroidStudioProjects/jrk/SSH-Tunnel/src/main/AndroidManifest.xml
